Msl3 patients - HDACi treatment - DEgenes ctrl vs patients - reps 2 and 4
…
## # A tibble: 48 x 4
## # Groups:   variable [?]
##    variable    cluster    mean     sd
##    <fct>         <dbl>   <dbl>  <dbl>
##  1 MCRS1_femES    1.00 0.288   0.305 
##  2 MCRS1_femES    2.00 0.263   0.319 
##  3 MCRS1_femES    3.00 0.295   0.317 
##  4 MCRS1_mlES     1.00 0.493   0.407 
##  5 MCRS1_mlES     2.00 0.467   0.449 
##  6 MCRS1_mlES     3.00 0.419   0.441 
##  7 MOF_femES      1.00 0.140   0.244 
##  8 MOF_femES      2.00 0.109   0.244 
##  9 MOF_femES      3.00 0.0712  0.180 
## 10 MOF_femNPC     1.00 0.00933 0.0428
## # ... with 38 more rows
…
## # A tibble: 64 x 4
## # Groups:   variable [?]
##    variable    cluster   mean    sd
##    <fct>         <dbl>  <dbl> <dbl>
##  1 MCRS1_femES    1.00 0.264  0.362
##  2 MCRS1_femES    2.00 0.249  0.318
##  3 MCRS1_femES    3.00 0.249  0.303
##  4 MCRS1_femES    4.00 0.289  0.398
##  5 MCRS1_mlES     1.00 0.405  0.410
##  6 MCRS1_mlES     2.00 0.460  0.416
##  7 MCRS1_mlES     3.00 0.302  0.381
##  8 MCRS1_mlES     4.00 0.327  0.331
##  9 MOF_femES      1.00 0.0513 0.177
## 10 MOF_femES      2.00 0.0433 0.136
## # ... with 54 more rows
…
